<svg width="24" height="24" viewBox="0 0 24 24" fill="none" xmlns="http://www.w3.org/2000/svg">
<path fill-rule="evenodd" clip-rule="evenodd" d="M12.9809 2.39812C14.5087 0.38475 16.6323 0.375 16.6323 0.375C16.6323 0.375 16.948 2.268 15.4304 4.09163C13.81 6.03863 11.968 5.72025 11.968 5.72025C11.968 5.72025 11.6223 4.18875 12.9809 2.39812Z" fill="#444444"/>
<path fill-rule="evenodd" clip-rule="evenodd" d="M12.1628 7.0462C12.9488 7.0462 14.4072 5.96582 16.3058 5.96582C19.5739 5.96582 20.8594 8.2912 20.8594 8.2912C20.8594 8.2912 18.3451 9.57669 18.3451 12.6963C18.3451 16.2153 21.4774 17.4281 21.4774 17.4281C21.4774 17.4281 19.2878 23.5912 16.3302 23.5912C14.9719 23.5912 13.9156 22.6758 12.4846 22.6758C11.0262 22.6758 9.57869 23.6253 8.63594 23.6253C5.93519 23.6253 2.52344 17.7791 2.52344 13.0799C2.52344 8.45657 5.41131 6.03107 8.12031 6.03107C9.88056 6.0307 11.2471 7.0462 12.1628 7.0462Z" fill="#444444"/>
</svg>
