<svg width="25" height="24" viewBox="0 0 25 24" fill="none" xmlns="http://www.w3.org/2000/svg">
<path d="M12.4999 16.5C9.10884 16.5 6.11203 18.1879 4.30374 20.7693C4.08281 21.0847 4.31947 21.5 4.70455 21.5H20.2952C20.6803 21.5 20.9169 21.0847 20.696 20.7693C18.8877 18.1879 15.8909 16.5 12.4999 16.5Z" fill="#1273EA"/>
<path fill-rule="evenodd" clip-rule="evenodd" d="M5.80809 3.50348C5.90895 6.29651 6.90873 7.59887 7.91588 8.23149C8.95298 8.88293 10.3123 9.02594 11.5754 8.84828C11.4093 6.46788 10.4853 5.2243 9.45876 4.52442C8.42759 3.82136 7.10056 3.53739 5.80809 3.50348ZM5.17952 2.00537C8.4278 1.90855 12.9563 3.07447 13.0984 9.32615C13.1082 9.7554 12.8206 10.1352 12.4007 10.2247C9.16787 10.914 4.24656 10.0438 4.30019 2.91544C4.30389 2.42383 4.68812 2.02002 5.17952 2.00537Z" fill="#1273EA"/>
<path fill-rule="evenodd" clip-rule="evenodd" d="M18.6938 6.59178C18.4077 8.26854 17.5829 9.1032 16.6794 9.55252C15.7429 10.0183 14.5716 10.1366 13.4838 10.0289C13.844 8.16779 14.581 7.39853 15.3049 7.02052C16.1301 6.58955 17.2521 6.49063 18.6938 6.59178ZM19.4224 5.1486C15.9143 4.80112 12.606 5.18498 11.9008 10.4203C11.8373 10.8915 12.1424 11.3358 12.6103 11.4203C15.4828 11.9396 19.8192 11.2639 20.2628 6.13386C20.3062 5.63141 19.9242 5.19831 19.4224 5.1486Z" fill="#1273EA"/>
<path d="M13.4998 11L11.4998 10V14.466C11.4998 14.7551 11.7442 14.9831 12.0331 14.9743C12.1879 14.9696 12.3435 14.9672 12.4998 14.9672C12.6561 14.9672 12.8116 14.9696 12.9664 14.9743C13.2553 14.9831 13.4998 14.7551 13.4998 14.466V11Z" fill="#1273EA"/>
</svg>
