<svg width="28" height="28" viewBox="0 0 28 28" fill="none" xmlns="http://www.w3.org/2000/svg">
<path d="M7.00016 19.8337V24.5003C7.00016 24.8098 6.8773 25.1066 6.65851 25.3254C6.43972 25.5442 6.14292 25.667 5.8335 25.667H3.50016C3.19074 25.667 2.89394 25.5442 2.67515 25.3254C2.45636 25.1066 2.3335 24.8098 2.3335 24.5003V19.8337C2.3335 19.5243 2.45636 19.2275 2.67515 19.0087C2.89394 18.7899 3.19074 18.667 3.50016 18.667H5.8335C6.14292 18.667 6.43972 18.7899 6.65851 19.0087C6.8773 19.2275 7.00016 19.5243 7.00016 19.8337ZM22.9369 18.6904C22.6572 18.691 22.3829 18.7675 22.1435 18.912L19.4951 20.4986C19.3708 21.2102 18.9998 21.8553 18.4472 22.3204C17.8946 22.7855 17.1958 23.041 16.4735 23.042H12.8335C12.6014 23.042 12.3789 22.9498 12.2148 22.7857C12.0507 22.6216 11.9585 22.3991 11.9585 22.167C11.9585 21.9349 12.0507 21.7125 12.2148 21.5484C12.3789 21.3843 12.6014 21.292 12.8335 21.292H16.4735C16.8216 21.292 17.1555 21.1538 17.4016 20.9076C17.6478 20.6615 17.786 20.3276 17.786 19.9795C17.786 19.6314 17.6478 19.2975 17.4016 19.0514C17.1555 18.8053 16.8216 18.667 16.4735 18.667H10.5002C9.88189 18.6689 9.28946 18.9153 8.85227 19.3525C8.41509 19.7896 8.16868 20.3821 8.16683 21.0003V23.3337C8.16868 23.952 8.41509 24.5444 8.85227 24.9816C9.28946 25.4188 9.88189 25.6652 10.5002 25.667H17.0335C18.0943 25.6671 19.1233 25.3049 19.9501 24.6403L23.9168 21.467C24.0995 21.3221 24.2469 21.1374 24.3479 20.9273C24.449 20.7171 24.501 20.4868 24.5002 20.2537C24.5002 19.839 24.3355 19.4414 24.0423 19.1482C23.7491 18.8551 23.3515 18.6904 22.9369 18.6904ZM11.6668 15.7503H16.3335C16.6472 15.7837 16.9643 15.7467 17.2619 15.642C17.5595 15.5372 17.8299 15.3674 18.0534 15.1448C18.277 14.9222 18.4481 14.6525 18.5542 14.3554C18.6603 14.0583 18.6988 13.7414 18.6668 13.4276C18.6988 12.9592 18.6302 12.4894 18.4657 12.0497C18.3013 11.61 18.0448 11.2106 17.7134 10.8782C17.3819 10.5457 16.9832 10.288 16.544 10.1222C16.1048 9.95646 15.6353 9.88649 15.1668 9.91701H12.8335C12.3651 9.88649 11.8955 9.95646 11.4563 10.1222C11.0172 10.288 10.6184 10.5457 10.287 10.8782C9.95553 11.2106 9.69904 11.61 9.53459 12.0497C9.37013 12.4894 9.30157 12.9592 9.3335 13.4276C9.30151 13.7414 9.34004 14.0583 9.44615 14.3554C9.55226 14.6525 9.72331 14.9222 9.94688 15.1448C10.1704 15.3674 10.4409 15.5372 10.7384 15.642C11.036 15.7467 11.3531 15.7837 11.6668 15.7503ZM14.0002 8.16701C14.5193 8.16701 15.0268 8.01311 15.4585 7.72467C15.8902 7.43623 16.2267 7.02627 16.4254 6.54661C16.624 6.06695 16.676 5.53909 16.5747 5.02989C16.4735 4.52069 16.2234 4.05303 15.8563 3.68591C15.4891 3.3188 15.0215 3.06871 14.5123 2.96743C14.0031 2.86614 13.4752 2.91814 12.9956 3.11682C12.5159 3.3155 12.1059 3.652 11.8175 4.08368C11.5291 4.51536 11.3752 5.02284 11.3752 5.54201C11.3761 6.23893 11.6537 6.907 12.1471 7.39925C12.6404 7.8915 13.3091 8.16763 14.006 8.16701H14.0002Z" fill="#57627B"/>
</svg>
