<svg width="24" height="24" viewBox="0 0 24 24" fill="none" xmlns="http://www.w3.org/2000/svg">
<g clip-path="url(#clip0_2446_34670)">
<path d="M12 16C14.2091 16 16 14.2091 16 12C16 9.79086 14.2091 8 12 8C9.79086 8 8 9.79086 8 12C8 14.2091 9.79086 16 12 16Z" fill="#57627B"/>
<path d="M6.30189 10.131C7.08989 7.735 9.34389 6 11.9999 6H22.2519C20.1729 2.419 16.3059 0 11.8749 0C8.26989 0 5.03889 1.605 2.83789 4.13L6.30189 10.131Z" fill="#57627B"/>
<path d="M13.228 17.873C12.831 17.956 12.421 18 12 18C9.783 18 7.849 16.789 6.81 14.997L6.804 15L1.554 5.90796C0.495 7.69596 -0.125 9.77496 -0.125 12C-0.125 17.909 4.171 22.821 9.801 23.808L13.228 17.873Z" fill="#57627B"/>
<path d="M16.4599 8C17.4139 9.063 17.9999 10.462 17.9999 12C17.9999 13.092 17.7019 14.114 17.1899 14.997L17.1959 15L12.0039 23.993C18.5609 23.923 23.8749 18.573 23.8749 12C23.8749 10.596 23.6199 9.253 23.1749 8H16.4599Z" fill="#57627B"/>
</g>
<defs>
<clipPath id="clip0_2446_34670">
<rect width="24" height="24" fill="white"/>
</clipPath>
</defs>
</svg>
