<svg width="50" height="50" viewBox="0 0 50 50" fill="none" xmlns="http://www.w3.org/2000/svg">
<rect x="15.6133" y="15.6133" width="18.7733" height="18.7733" fill="white"/>
<path d="M25 9C16.1632 9 9 16.1632 9 25C9 33.8368 16.1632 41 25 41C33.8368 41 41 33.8368 41 25C41 16.1632 33.8368 9 25 9ZM25.032 33.8C24.1488 33.8 23.4238 33.0832 23.4238 32.2C23.4238 31.3168 24.1328 30.6 25.016 30.6H25.032C25.9168 30.6 26.632 31.3168 26.632 32.2C26.632 33.0832 25.9152 33.8 25.032 33.8ZM27.5648 25.8449C26.3952 26.6289 26.1775 27.0657 26.1375 27.1809C25.9695 27.6817 25.5024 27.9984 25 27.9984C24.8736 27.9984 24.7455 27.9791 24.6191 27.9359C23.9903 27.7247 23.6529 27.0448 23.8625 26.416C24.1521 25.552 24.9025 24.7376 26.2273 23.8496C27.8609 22.7552 27.6512 21.5553 27.5824 21.1617C27.4016 20.1153 26.52 19.2238 25.4848 19.0414C24.6976 18.8974 23.9282 19.1038 23.3266 19.6078C22.7218 20.115 22.3742 20.8623 22.3742 21.6559C22.3742 22.3183 21.8366 22.8559 21.1742 22.8559C20.5118 22.8559 19.9742 22.3183 19.9742 21.6559C19.9742 20.1503 20.6336 18.7343 21.784 17.7695C22.9232 16.8159 24.4223 16.4177 25.9023 16.6801C27.9295 17.0385 29.5921 18.7136 29.9457 20.752C30.2977 22.7712 29.4512 24.5809 27.5648 25.8449Z" fill="#ADB8CF"/>
</svg>
