<svg width="51" height="50" viewBox="0 0 51 50" fill="none" xmlns="http://www.w3.org/2000/svg">
<rect x="17.5" y="11.3633" width="15.9091" height="18.1818" fill="white"/>
<path fill-rule="evenodd" clip-rule="evenodd" d="M34.1039 33.7084L36.9583 43.75L31.1875 41.4375C28.2083 40.25 24.875 40.25 21.8959 41.4375L16.125 43.75L18.9794 33.7084C19.2294 33.7501 19.4583 33.7708 19.7083 33.7916C19.8541 33.7916 19.9999 33.8125 20.1665 33.8125H20.7291L21.1456 34.2293C22.5831 35.6668 24.5 36.4583 26.5417 36.4583C28.5833 36.4583 30.5002 35.6668 31.9377 34.2293L32.3542 33.8125H32.9168C33.0835 33.8125 33.2292 33.7916 33.3751 33.7916C33.6251 33.7708 33.8539 33.7501 34.1039 33.7084ZM38.7624 22.9813L38.0982 23.6458C37.6752 24.0687 37.4375 24.6437 37.4375 25.2416V26.1749C37.4375 28.5978 35.5227 30.5604 33.1248 30.6666C33.0581 30.6687 32.9937 30.6875 32.9249 30.6875H31.9916C31.3937 30.6875 30.8189 30.925 30.396 31.3479L29.7313 32.0124C27.9688 33.7749 25.1125 33.7749 23.3521 32.0124L22.6873 31.3479C22.2644 30.925 21.6896 30.6875 21.0917 30.6875H20.1584C20.0897 30.6875 20.0273 30.6708 19.9585 30.6666C17.5627 30.5604 15.6459 28.5978 15.6459 26.1749V25.2416C15.6459 24.6437 15.4081 24.0687 14.9852 23.6458L14.3209 22.9813C12.5584 21.2188 12.5584 18.3625 14.3209 16.6021L14.9852 15.9375C15.4081 15.5146 15.6459 14.9396 15.6459 14.3417V13.4084C15.6459 10.9167 17.6647 8.89587 20.1564 8.89587H21.0897C21.6876 8.89587 22.2623 8.65834 22.6853 8.23542L23.35 7.5709C25.1125 5.8084 27.9688 5.8084 29.7292 7.5709L30.394 8.23542C30.8169 8.65834 31.3916 8.89587 31.9896 8.89587H32.9229C35.4146 8.89587 37.4334 10.9147 37.4334 13.4084V14.3417C37.4334 14.9396 37.6707 15.5146 38.0936 15.9375L38.7584 16.6021C40.5229 18.3625 40.5228 21.2208 38.7624 22.9813ZM32.1961 17.852L29.0833 17.4021C28.8562 17.3688 28.6604 17.2271 28.5604 17.023L27.2125 14.3021C26.9396 13.75 26.1499 13.75 25.8749 14.3021L24.527 17.023C24.4249 17.2271 24.2291 17.3688 24.0041 17.4021L20.8918 17.852C20.321 17.9354 20.0917 18.6353 20.5063 19.0353L22.7565 21.2189C22.921 21.3793 22.9959 21.6083 22.9564 21.8333L22.4416 24.8187C22.3375 25.4249 22.975 25.8895 23.523 25.602L26.2207 24.1895C26.4228 24.0833 26.6645 24.0833 26.8687 24.1895L29.5685 25.602C30.1143 25.8874 30.752 25.4249 30.6478 24.8187L30.1336 21.8292C30.094 21.6042 30.1689 21.3729 30.3335 21.2145L32.5831 19.0313C32.9935 18.6354 32.7669 17.9354 32.1961 17.852Z" fill="url(#paint0_linear_5790_74846)"/>
<defs>
<linearGradient id="paint0_linear_5790_74846" x1="26.5406" y1="6.24902" x2="26.5406" y2="43.75" gradientUnits="userSpaceOnUse">
<stop stop-color="#FFDC96"/>
<stop offset="1" stop-color="#FFA900"/>
</linearGradient>
</defs>
</svg>
